[ {
  "uid" : "2e8887de9c20ecbf",
  "name" : "test_single_send_input_form",
  "time" : {
    "start" : 1619543846685,
    "stop" : 1619543854836,
    "duration" : 8151
  },
  "status" : "passed",
  "severity" : "normal"
} ]