{
  "uid" : "83edc06c07f9ae9e47eb6dd1b683e4e2",
  "name" : "packages",
  "children" : [ {
    "name" : "rest_tests.test_rest_request",
    "children" : [ {
      "name" : "test_user_list",
      "uid" : "b6d2fe3b28121c94",
      "parentUid" : "aeb49b13c7ecba7b6871d57bea9c5984",
      "status" : "passed",
      "time" : {
        "start" : 1636438963996,
        "stop" : 1636440657100,
        "duration" : 1693104
      },
      "flaky" : false,
      "newFailed" : false,
      "parameters" : [ ]
    }, {
      "name" : "test_create_user",
      "uid" : "ab1b51db78a9a09d",
      "parentUid" : "aeb49b13c7ecba7b6871d57bea9c5984",
      "status" : "broken",
      "time" : {
        "start" : 1636440657187,
        "stop" : 1636440657187,
        "duration" : 0
      },
      "flaky" : false,
      "newFailed" : false,
      "parameters" : [ ]
    } ],
    "uid" : "rest_tests.test_rest_request"
  } ]
}