{
  "uid" : "b1a8273437954620fa374b796ffaacdd",
  "name" : "behaviors",
  "children" : [ {
    "name" : "test_single_send_input_form",
    "uid" : "2e8887de9c20ecbf",
    "parentUid" : "b1a8273437954620fa374b796ffaacdd",
    "status" : "passed",
    "time" : {
      "start" : 1619543846685,
      "stop" : 1619543854836,
      "duration" : 8151
    },
    "flaky" : false,
    "newFailed" : false,
    "parameters" : [ ]
  } ]
}