[ {
  "uid" : "34e7cee45b6e68b4",
  "name" : "test_user_list",
  "time" : {
    "start" : 1636440988745,
    "stop" : 1636441007656,
    "duration" : 18911
  },
  "status" : "passed",
  "severity" : "normal"
}, {
  "uid" : "1a0d84576dad268d",
  "name" : "test_create_user",
  "time" : {
    "start" : 1636441007701,
    "stop" : 1636441007701,
    "duration" : 0
  },
  "status" : "broken",
  "severity" : "normal"
} ]