launch_status failed=0 1635939300000000000
launch_status broken=1 1635939300000000000
launch_status passed=1 1635939300000000000
launch_status skipped=0 1635939300000000000
launch_status unknown=0 1635939300000000000
launch_time duration=531 1635939300000000000
launch_time min_duration=0 1635939300000000000
launch_time max_duration=488 1635939300000000000
launch_time sum_duration=488 1635939300000000000
launch_problems test_defects=1 1635939300000000000
launch_retries retries=0 1635939300000000000
launch_retries run=2 1635939300000000000
