[ {
  "uid" : "1ecf26fad4f442fd",
  "name" : "test_create_user",
  "time" : {
    "start" : 1635939297038,
    "stop" : 1635939297038,
    "duration" : 0
  },
  "status" : "broken",
  "severity" : "normal"
}, {
  "uid" : "59ae0acdac416008",
  "name" : "test_user_list",
  "time" : {
    "start" : 1635939296507,
    "stop" : 1635939296995,
    "duration" : 488
  },
  "status" : "passed",
  "severity" : "normal"
} ]