[ {
  "buildOrder" : 33,
  "reportUrl" : "http://localhost:8080/job/Run_Pytest/33/allure",
  "reportName" : "AllureReport",
  "data" : {
    "duration" : 8151
  }
}, {
  "buildOrder" : 32,
  "reportUrl" : "http://localhost:8080/job/Run_Pytest/32/allure",
  "reportName" : "AllureReport",
  "data" : {
    "duration" : 8893
  }
}, {
  "buildOrder" : 31,
  "reportUrl" : "http://localhost:8080/job/Run_Pytest/31/allure",
  "reportName" : "AllureReport",
  "data" : { }
}, {
  "buildOrder" : 30,
  "reportUrl" : "http://localhost:8080/job/Run_Pytest/30/allure",
  "reportName" : "AllureReport",
  "data" : { }
}, {
  "buildOrder" : 29,
  "reportUrl" : "http://localhost:8080/job/Run_Pytest/29/allure",
  "reportName" : "AllureReport",
  "data" : { }
}, {
  "buildOrder" : 28,
  "reportUrl" : "http://localhost:8080/job/Run_Pytest/28/allure",
  "reportName" : "AllureReport",
  "data" : { }
}, {
  "buildOrder" : 27,
  "reportUrl" : "http://localhost:8080/job/Run_Pytest/27/allure",
  "reportName" : "AllureReport",
  "data" : { }
}, {
  "buildOrder" : 26,
  "reportUrl" : "http://localhost:8080/job/Run_Pytest/26/allure",
  "reportName" : "AllureReport",
  "data" : {
    "duration" : 8916
  }
}, {
  "buildOrder" : 25,
  "reportUrl" : "http://localhost:8080/job/Run_Pytest/25/allure",
  "reportName" : "AllureReport",
  "data" : {
    "duration" : 9656
  }
}, {
  "buildOrder" : 24,
  "reportUrl" : "http://localhost:8080/job/Run_Pytest/24/allure",
  "reportName" : "AllureReport",
  "data" : {
    "duration" : 2906
  }
}, {
  "buildOrder" : 23,
  "reportUrl" : "http://localhost:8080/job/Run_Pytest/23/allure",
  "reportName" : "AllureReport",
  "data" : {
    "duration" : 475793
  }
}, {
  "buildOrder" : 22,
  "reportUrl" : "http://localhost:8080/job/Run_Pytest/22/allure",
  "reportName" : "AllureReport",
  "data" : {
    "duration" : 341616
  }
}, {
  "buildOrder" : 21,
  "reportUrl" : "http://localhost:8080/job/Run_Pytest/21/allure",
  "reportName" : "AllureReport",
  "data" : {
    "duration" : 21334
  }
}, {
  "buildOrder" : 20,
  "reportUrl" : "http://localhost:8080/job/Run_Pytest/20/allure",
  "reportName" : "AllureReport",
  "data" : {
    "duration" : 17063
  }
}, {
  "buildOrder" : 19,
  "reportUrl" : "http://localhost:8080/job/Run_Pytest/19/allure",
  "reportName" : "AllureReport",
  "data" : {
    "duration" : 30169
  }
}, {
  "buildOrder" : 18,
  "reportUrl" : "http://localhost:8080/job/Run_Pytest/18/allure",
  "reportName" : "AllureReport",
  "data" : {
    "duration" : 14770
  }
}, {
  "buildOrder" : 17,
  "reportUrl" : "http://localhost:8080/job/Run_Pytest/17/allure",
  "reportName" : "AllureReport",
  "data" : {
    "duration" : 21314
  }
}, {
  "buildOrder" : 16,
  "reportUrl" : "http://localhost:8080/job/Run_Pytest/16/allure",
  "reportName" : "AllureReport",
  "data" : {
    "duration" : 2730
  }
}, {
  "buildOrder" : 15,
  "reportUrl" : "http://localhost:8080/job/Run_Pytest/15/allure",
  "reportName" : "AllureReport",
  "data" : {
    "duration" : 2730
  }
}, {
  "buildOrder" : 14,
  "reportUrl" : "http://localhost:8080/job/Run_Pytest/14/allure",
  "reportName" : "AllureReport",
  "data" : {
    "duration" : 10457
  }
} ]