{
  "pytest:test_regular#test_header_nav" : {
    "statistic" : {
      "failed" : 7,
      "broken" : 0,
      "skipped" : 0,
      "passed" : 0,
      "unknown" : 0,
      "total" : 7
    },
    "items" : [ {
      "uid" : "f0eed2fe8d090c48",
      "reportUrl" : "http://localhost:8080/job/Run_Pytest/23/allure/#testresult/f0eed2fe8d090c48",
      "status" : "failed",
      "statusDetails" : "AssertionError: url does not match",
      "time" : {
        "start" : 1616651599259,
        "stop" : 1616651618449,
        "duration" : 19190
      }
    }, {
      "uid" : "40faec665555f367",
      "reportUrl" : "http://localhost:8080/job/Run_Pytest/22/allure/#testresult/40faec665555f367",
      "status" : "failed",
      "statusDetails" : "AssertionError: url does not match",
      "time" : {
        "start" : 1616651599259,
        "stop" : 1616651618449,
        "duration" : 19190
      }
    }, {
      "uid" : "ee61c8972326d30b",
      "reportUrl" : "http://localhost:8080/job/Run_Pytest/21/allure/#testresult/ee61c8972326d30b",
      "status" : "failed",
      "statusDetails" : "AssertionError: url does not match",
      "time" : {
        "start" : 1616651599259,
        "stop" : 1616651618449,
        "duration" : 19190
      }
    }, {
      "uid" : "18c3c7fb75625726",
      "reportUrl" : "http://localhost:8080/job/Run_Pytest/20/allure/#testresult/18c3c7fb75625726",
      "status" : "failed",
      "statusDetails" : "AssertionError: url does not match",
      "time" : {
        "start" : 1616651319991,
        "stop" : 1616651335972,
        "duration" : 15981
      }
    }, {
      "uid" : "22c8d34f9cd75539",
      "reportUrl" : "http://localhost:8080/job/Run_Pytest/19/allure/#testresult/22c8d34f9cd75539",
      "status" : "failed",
      "statusDetails" : "AssertionError: url does not match",
      "time" : {
        "start" : 1616649929799,
        "stop" : 1616649959826,
        "duration" : 30027
      }
    }, {
      "uid" : "ec0186323bddb4",
      "reportUrl" : "http://localhost:8080/job/Run_Pytest/18/allure/#testresult/ec0186323bddb4",
      "status" : "failed",
      "statusDetails" : "AssertionError: url does not match",
      "time" : {
        "start" : 1616640394997,
        "stop" : 1616640409587,
        "duration" : 14590
      }
    }, {
      "uid" : "d6fbffe615ba2aa1",
      "reportUrl" : "http://localhost:8080/job/Run_Pytest/17/allure/#testresult/d6fbffe615ba2aa1",
      "status" : "failed",
      "statusDetails" : "AssertionError: url does not match",
      "time" : {
        "start" : 1616640153399,
        "stop" : 1616640174468,
        "duration" : 21069
      }
    } ]
  },
  "6610883fdc9778efcb4ccaa99e94cec6" : {
    "statistic" : {
      "failed" : 0,
      "broken" : 0,
      "skipped" : 0,
      "passed" : 2,
      "unknown" : 0,
      "total" : 2
    },
    "items" : [ {
      "uid" : "2e8887de9c20ecbf",
      "reportUrl" : "http://localhost:8080/job/Run_Pytest/33/allure/#testresult/2e8887de9c20ecbf",
      "status" : "passed",
      "time" : {
        "start" : 1619543846685,
        "stop" : 1619543854836,
        "duration" : 8151
      }
    }, {
      "uid" : "5bd9224378cf3b3e",
      "reportUrl" : "http://localhost:8080/job/Run_Pytest/32/allure/#testresult/5bd9224378cf3b3e",
      "status" : "passed",
      "time" : {
        "start" : 1619543740459,
        "stop" : 1619543749352,
        "duration" : 8893
      }
    } ]
  },
  "52de19bf8976bae2adbff90085134b45" : {
    "statistic" : {
      "failed" : 16,
      "broken" : 1,
      "skipped" : 0,
      "passed" : 0,
      "unknown" : 0,
      "total" : 17
    },
    "items" : [ {
      "uid" : "d5d7993c4b126c2c",
      "reportUrl" : "http://localhost:8080/job/Run_Pytest/26/allure/#testresult/d5d7993c4b126c2c",
      "status" : "failed",
      "statusDetails" : "AssertionError: url does not match",
      "time" : {
        "start" : 1616668350218,
        "stop" : 1616668359134,
        "duration" : 8916
      }
    }, {
      "uid" : "12284d57ff4e7de",
      "reportUrl" : "http://localhost:8080/job/Run_Pytest/25/allure/#testresult/12284d57ff4e7de",
      "status" : "failed",
      "statusDetails" : "AssertionError: url does not match",
      "time" : {
        "start" : 1616652303880,
        "stop" : 1616652313536,
        "duration" : 9656
      }
    }, {
      "uid" : "71bbba233aa5ce71",
      "reportUrl" : "http://localhost:8080/job/Run_Pytest/24/allure/#testresult/71bbba233aa5ce71",
      "status" : "failed",
      "statusDetails" : "AssertionError: url does not match",
      "time" : {
        "start" : 1616652184366,
        "stop" : 1616652187272,
        "duration" : 2906
      }
    }, {
      "uid" : "23546d69fb881fef",
      "reportUrl" : "http://localhost:8080/job/Run_Pytest/23/allure/#testresult/23546d69fb881fef",
      "status" : "failed",
      "statusDetails" : "AssertionError: url does not match",
      "time" : {
        "start" : 1616652072696,
        "stop" : 1616652075052,
        "duration" : 2356
      }
    }, {
      "uid" : "7b69cfadb370f05",
      "reportUrl" : "http://localhost:8080/job/Run_Pytest/22/allure/#testresult/7b69cfadb370f05",
      "status" : "failed",
      "statusDetails" : "AssertionError: url does not match",
      "time" : {
        "start" : 1616651938123,
        "stop" : 1616651940875,
        "duration" : 2752
      }
    }, {
      "uid" : "cd6c4f398ab04561",
      "reportUrl" : "http://localhost:8080/job/Run_Pytest/21/allure/#testresult/cd6c4f398ab04561",
      "status" : "failed",
      "statusDetails" : "AssertionError: url does not match",
      "time" : {
        "start" : 1616651617915,
        "stop" : 1616651620593,
        "duration" : 2678
      }
    }, {
      "uid" : "a6100122595a5918",
      "reportUrl" : "http://localhost:8080/job/Run_Pytest/20/allure/#testresult/a6100122595a5918",
      "status" : "failed",
      "statusDetails" : "AssertionError: url does not match",
      "time" : {
        "start" : 1616651333816,
        "stop" : 1616651337054,
        "duration" : 3238
      }
    }, {
      "uid" : "8c3ed79899fed19b",
      "reportUrl" : "http://localhost:8080/job/Run_Pytest/19/allure/#testresult/8c3ed79899fed19b",
      "status" : "failed",
      "statusDetails" : "AssertionError: url does not match",
      "time" : {
        "start" : 1616649944570,
        "stop" : 1616649959968,
        "duration" : 15398
      }
    }, {
      "uid" : "400d8e18cf99ad72",
      "reportUrl" : "http://localhost:8080/job/Run_Pytest/18/allure/#testresult/400d8e18cf99ad72",
      "status" : "failed",
      "statusDetails" : "AssertionError: url does not match",
      "time" : {
        "start" : 1616640404641,
        "stop" : 1616640409767,
        "duration" : 5126
      }
    }, {
      "uid" : "7cf1b9ed43df3a93",
      "reportUrl" : "http://localhost:8080/job/Run_Pytest/17/allure/#testresult/7cf1b9ed43df3a93",
      "status" : "failed",
      "statusDetails" : "AssertionError: url does not match",
      "time" : {
        "start" : 1616640171608,
        "stop" : 1616640174713,
        "duration" : 3105
      }
    }, {
      "uid" : "7f9c6c23ee7faede",
      "reportUrl" : "http://localhost:8080/job/Run_Pytest/16/allure/#testresult/7f9c6c23ee7faede",
      "status" : "failed",
      "statusDetails" : "AssertionError: url does not match",
      "time" : {
        "start" : 1616595971124,
        "stop" : 1616595973854,
        "duration" : 2730
      }
    }, {
      "uid" : "ac11f969c605970f",
      "reportUrl" : "http://localhost:8080/job/Run_Pytest/15/allure/#testresult/ac11f969c605970f",
      "status" : "failed",
      "statusDetails" : "AssertionError: url does not match",
      "time" : {
        "start" : 1616595971124,
        "stop" : 1616595973854,
        "duration" : 2730
      }
    }, {
      "uid" : "8d57491689e5b1a8",
      "reportUrl" : "http://localhost:8080/job/Run_Pytest/14/allure/#testresult/8d57491689e5b1a8",
      "status" : "failed",
      "statusDetails" : "AssertionError: url does not match",
      "time" : {
        "start" : 1616593519133,
        "stop" : 1616593529590,
        "duration" : 10457
      }
    }, {
      "uid" : "3edee133dccce41b",
      "reportUrl" : "http://localhost:8080/job/Run_Pytest/13/allure/#testresult/3edee133dccce41b",
      "status" : "failed",
      "statusDetails" : "AssertionError: url does not match",
      "time" : {
        "start" : 1616487779113,
        "stop" : 1616487784112,
        "duration" : 4999
      }
    }, {
      "uid" : "e4241667350f0398",
      "reportUrl" : "http://localhost:8080/job/Run_Pytest/12/allure/#testresult/e4241667350f0398",
      "status" : "broken",
      "statusDetails" : "selenium.common.exceptions.ElementClickInterceptedException: Message: element click intercepted: Element <a id=\"nav_automobile\" name=\"Navigation ...\" href=\"#\" onclick=\"gotoapp('Automobile');\">Automobile</a> is not clickable at point (240, 114). Other element would receive the click: <a dont=\"\" style=\"top: 0px; left: 0px; width: 1036px; height: 674px; position: absolute; z-index: 2147483647;\"></a>\n  (Session info: chrome=89.0.4389.90)",
      "time" : {
        "start" : 1616487698765,
        "stop" : 1616487700261,
        "duration" : 1496
      }
    }, {
      "uid" : "2ff60b94148468b6",
      "reportUrl" : "http://localhost:8080/job/Run_Pytest/11/allure/#testresult/2ff60b94148468b6",
      "status" : "failed",
      "statusDetails" : "AssertionError: url does not match",
      "time" : {
        "start" : 1616469420421,
        "stop" : 1616469423708,
        "duration" : 3287
      }
    }, {
      "uid" : "243bee9fac12caf5",
      "reportUrl" : "http://localhost:8080/job/Run_Pytest/10/allure/#testresult/243bee9fac12caf5",
      "status" : "failed",
      "statusDetails" : "AssertionError",
      "time" : {
        "start" : 1616469247000,
        "stop" : 1616469250720,
        "duration" : 3720
      }
    } ]
  }
}